-- Merging decision tree log ---
manifest
ADDED from /home/irshad/reactNative/sqlite/android/app/src/main/AndroidManifest.xml:1:1-27:12
INJECTED from /home/irshad/reactNative/sqlite/android/app/src/main/AndroidManifest.xml:1:1-27:12
INJECTED from /home/irshad/reactNative/sqlite/android/app/src/main/AndroidManifest.xml:1:1-27:12
INJECTED from /home/irshad/reactNative/sqlite/android/app/src/main/AndroidManifest.xml:1:1-27:12
MERGED from [com.facebook.react:react-native:0.58.4] /home/irshad/.gradle/caches/transforms-1/files-1.1/react-native-0.58.4.aar/7c8c085b68af95b05e9549001d97eb55/AndroidManifest.xml:2:1-15:12
MERGED from [com.android.support:appcompat-v7:28.0.0] /home/irshad/.gradle/caches/transforms-1/files-1.1/appcompat-v7-28.0.0.aar/0e9cef4b2f570f4fd98056104e9934ea/AndroidManifest.xml:17:1-22:12
MERGED from [com.android.support:support-fragment:28.0.0] /home/irshad/.gradle/caches/transforms-1/files-1.1/support-fragment-28.0.0.aar/3827a0687d9cbf98e261feaff0507c67/AndroidManifest.xml:17:1-22:12
MERGED from [com.android.support:animated-vector-drawable:28.0.0] /home/irshad/.gradle/caches/transforms-1/files-1.1/animated-vector-drawable-28.0.0.aar/847f4dd85a98078b05e3fa9115a31262/AndroidManifest.xml:17:1-22:12
MERGED from [com.android.support:support-core-ui:28.0.0] /home/irshad/.gradle/caches/transforms-1/files-1.1/support-core-ui-28.0.0.aar/3ae9d2f1b4c467499ac83202d8de2c22/AndroidManifest.xml:17:1-22:12
MERGED from [com.android.support:support-core-utils:28.0.0] /home/irshad/.gradle/caches/transforms-1/files-1.1/support-core-utils-28.0.0.aar/fb95dea86fe50472f859699761490529/AndroidManifest.xml:17:1-22:12
MERGED from [com.android.support:support-vector-drawable:28.0.0] /home/irshad/.gradle/caches/transforms-1/files-1.1/support-vector-drawable-28.0.0.aar/9a384ea0acf0bb9691734b2bd4c342ba/AndroidManifest.xml:17:1-22:12
MERGED from [com.android.support:loader:28.0.0] /home/irshad/.gradle/caches/transforms-1/files-1.1/loader-28.0.0.aar/e0f6f9517daa6876648f5d135f7c0a0d/AndroidManifest.xml:17:1-22:12
MERGED from [com.android.support:viewpager:28.0.0] /home/irshad/.gradle/caches/transforms-1/files-1.1/viewpager-28.0.0.aar/b10f87099d6496c8d1bef527718060f5/AndroidManifest.xml:17:1-22:12
MERGED from [com.android.support:coordinatorlayout:28.0.0] /home/irshad/.gradle/caches/transforms-1/files-1.1/coordinatorlayout-28.0.0.aar/72fadfd937fcd4d35fc843581edb0e4b/AndroidManifest.xml:17:1-22:12
MERGED from [com.android.support:drawerlayout:28.0.0] /home/irshad/.gradle/caches/transforms-1/files-1.1/drawerlayout-28.0.0.aar/28b96163b2347919f457afa91a5b8c96/AndroidManifest.xml:17:1-22:12
MERGED from [com.android.support:slidingpanelayout:28.0.0] /home/irshad/.gradle/caches/transforms-1/files-1.1/slidingpanelayout-28.0.0.aar/cc85e89d51c599f569f9f516acc5bc9c/AndroidManifest.xml:17:1-22:12
MERGED from [com.android.support:customview:28.0.0] /home/irshad/.gradle/caches/transforms-1/files-1.1/customview-28.0.0.aar/0d94550a8351764f017e0ea3ac6376de/AndroidManifest.xml:17:1-22:12
MERGED from [com.android.support:swiperefreshlayout:28.0.0] /home/irshad/.gradle/caches/transforms-1/files-1.1/swiperefreshlayout-28.0.0.aar/68314c23bb26203c8862efdb9d760599/AndroidManifest.xml:17:1-22:12
MERGED from [com.android.support:asynclayoutinflater:28.0.0] /home/irshad/.gradle/caches/transforms-1/files-1.1/asynclayoutinflater-28.0.0.aar/a5f5aa6c117ef334e9a7172f22fa3d31/AndroidManifest.xml:17:1-22:12
MERGED from [com.android.support:support-compat:28.0.0] /home/irshad/.gradle/caches/transforms-1/files-1.1/support-compat-28.0.0.aar/771feb32549a10902c9974ae21d6a1ca/AndroidManifest.xml:17:1-24:12
MERGED from [com.android.support:versionedparcelable:28.0.0] /home/irshad/.gradle/caches/transforms-1/files-1.1/versionedparcelable-28.0.0.aar/d584ee3e160e344762ed2fdc110ac938/AndroidManifest.xml:17:1-25:12
MERGED from [com.android.support:cursoradapter:28.0.0] /home/irshad/.gradle/caches/transforms-1/files-1.1/cursoradapter-28.0.0.aar/96f5de7536b3829ba0abd30c8b24b30f/AndroidManifest.xml:17:1-22:12
MERGED from [android.arch.lifecycle:runtime:1.1.1] /home/irshad/.gradle/caches/transforms-1/files-1.1/runtime-1.1.1.aar/31993d8abd3c4a2f709641cb94b6c516/AndroidManifest.xml:17:1-22:12
MERGED from [com.android.support:documentfile:28.0.0] /home/irshad/.gradle/caches/transforms-1/files-1.1/documentfile-28.0.0.aar/cc2a1d6782f8deff06eb8071e81ad235/AndroidManifest.xml:17:1-22:12
MERGED from [com.android.support:localbroadcastmanager:28.0.0] /home/irshad/.gradle/caches/transforms-1/files-1.1/localbroadcastmanager-28.0.0.aar/31ef8cf655da30d2b3a590706233cbe5/AndroidManifest.xml:17:1-22:12
MERGED from [com.android.support:print:28.0.0] /home/irshad/.gradle/caches/transforms-1/files-1.1/print-28.0.0.aar/aace40e8dca27ccd81a87ef284f23c83/AndroidManifest.xml:17:1-22:12
MERGED from [android.arch.lifecycle:viewmodel:1.1.1] /home/irshad/.gradle/caches/transforms-1/files-1.1/viewmodel-1.1.1.aar/9ed334a798c398b06560e0eea1689ea1/AndroidManifest.xml:17:1-22:12
MERGED from [android.arch.lifecycle:livedata:1.1.1] /home/irshad/.gradle/caches/transforms-1/files-1.1/livedata-1.1.1.aar/2b8f4a885b77be2aff210c3d4be6ed54/AndroidManifest.xml:17:1-22:12
MERGED from [android.arch.lifecycle:livedata-core:1.1.1] /home/irshad/.gradle/caches/transforms-1/files-1.1/livedata-core-1.1.1.aar/83a2da4b344972aec2c10fba4431c772/AndroidManifest.xml:17:1-22:12
MERGED from [android.arch.core:runtime:1.1.1] /home/irshad/.gradle/caches/transforms-1/files-1.1/runtime-1.1.1.aar/1a17cfb2f8cc5541cb51f3789f0f57ba/AndroidManifest.xml:17:1-22:12
MERGED from [com.android.support:interpolator:28.0.0] /home/irshad/.gradle/caches/transforms-1/files-1.1/interpolator-28.0.0.aar/814eae93f1270c56214efd91bcdb1b6e/AndroidManifest.xml:17:1-22:12
MERGED from [com.facebook.fresco:fresco:1.10.0] /home/irshad/.gradle/caches/transforms-1/files-1.1/fresco-1.10.0.aar/3eff9663ff9988667f962e33ce004f02/AndroidManifest.xml:2:1-9:12
MERGED from [com.facebook.fresco:imagepipeline-okhttp3:1.10.0] /home/irshad/.gradle/caches/transforms-1/files-1.1/imagepipeline-okhttp3-1.10.0.aar/a4d5bc25568fd22b926fab543da8c15f/AndroidManifest.xml:2:1-9:12
MERGED from [com.facebook.fresco:drawee:1.10.0] /home/irshad/.gradle/caches/transforms-1/files-1.1/drawee-1.10.0.aar/9745adb57e6cd99b3f7e0ed959fc4877/AndroidManifest.xml:2:1-9:12
MERGED from [com.facebook.fresco:imagepipeline:1.10.0] /home/irshad/.gradle/caches/transforms-1/files-1.1/imagepipeline-1.10.0.aar/e6e46b0d3e0edc549c89723ee34cd44c/AndroidManifest.xml:2:1-9:12
MERGED from [com.facebook.fresco:imagepipeline-base:1.10.0] /home/irshad/.gradle/caches/transforms-1/files-1.1/imagepipeline-base-1.10.0.aar/43692b81b2057aaf4b788bdabe36932c/AndroidManifest.xml:2:1-9:12
MERGED from [com.facebook.soloader:soloader:0.6.0] /home/irshad/.gradle/caches/transforms-1/files-1.1/soloader-0.6.0.aar/ea419f1e789312ad4238ac4e208da17c/AndroidManifest.xml:2:1-13:12
MERGED from [org.webkit:android-jsc:r174650] /home/irshad/.gradle/caches/transforms-1/files-1.1/android-jsc-r174650.aar/d86be95857f81b3f83113bf98378207c/AndroidManifest.xml:1:1-3:12
MERGED from [com.facebook.fresco:fbcore:1.10.0] /home/irshad/.gradle/caches/transforms-1/files-1.1/fbcore-1.10.0.aar/e64f68533693934f050d7bf374f92cc1/AndroidManifest.xml:2:1-9:12
INJECTED from /home/irshad/reactNative/sqlite/android/app/src/main/AndroidManifest.xml:1:1-27:12
INJECTED from /home/irshad/reactNative/sqlite/android/app/src/main/AndroidManifest.xml:1:1-27:12
INJECTED from /home/irshad/reactNative/sqlite/android/app/src/main/AndroidManifest.xml:1:1-27:12
	package
		ADDED from /home/irshad/reactNative/sqlite/android/app/src/main/AndroidManifest.xml:2:5-25
		INJECTED from /home/irshad/reactNative/sqlite/android/app/src/main/AndroidManifest.xml
		INJECTED from /home/irshad/reactNative/sqlite/android/app/src/main/AndroidManifest.xml
	android:versionName
		INJECTED from /home/irshad/reactNative/sqlite/android/app/src/main/AndroidManifest.xml
		ADDED from /home/irshad/reactNative/sqlite/android/app/src/main/AndroidManifest.xml:1:1-27:12
		INJECTED from /home/irshad/reactNative/sqlite/android/app/src/main/AndroidManifest.xml
	android:versionCode
		INJECTED from /home/irshad/reactNative/sqlite/android/app/src/main/AndroidManifest.xml
		ADDED from /home/irshad/reactNative/sqlite/android/app/src/main/AndroidManifest.xml:1:1-27:12
		INJECTED from /home/irshad/reactNative/sqlite/android/app/src/main/AndroidManifest.xml
	xmlns:android
		ADDED from /home/irshad/reactNative/sqlite/android/app/src/main/AndroidManifest.xml:1:11-69
uses-permission#android.permission.INTERNET
ADDED from /home/irshad/reactNative/sqlite/android/app/src/main/AndroidManifest.xml:4:5-67
	android:name
		ADDED from /home/irshad/reactNative/sqlite/android/app/src/main/AndroidManifest.xml:4:22-64
uses-permission#android.permission.SYSTEM_ALERT_WINDOW
ADDED from /home/irshad/reactNative/sqlite/android/app/src/main/AndroidManifest.xml:5:5-77
MERGED from [com.facebook.react:react-native:0.58.4] /home/irshad/.gradle/caches/transforms-1/files-1.1/react-native-0.58.4.aar/7c8c085b68af95b05e9549001d97eb55/AndroidManifest.xml:11:5-78
MERGED from [com.facebook.react:react-native:0.58.4] /home/irshad/.gradle/caches/transforms-1/files-1.1/react-native-0.58.4.aar/7c8c085b68af95b05e9549001d97eb55/AndroidManifest.xml:11:5-78
	android:name
		ADDED from /home/irshad/reactNative/sqlite/android/app/src/main/AndroidManifest.xml:5:22-75
application
ADDED from /home/irshad/reactNative/sqlite/android/app/src/main/AndroidManifest.xml:7:5-25:19
MERGED from [com.facebook.react:react-native:0.58.4] /home/irshad/.gradle/caches/transforms-1/files-1.1/react-native-0.58.4.aar/7c8c085b68af95b05e9549001d97eb55/AndroidManifest.xml:13:5-20
MERGED from [com.facebook.react:react-native:0.58.4] /home/irshad/.gradle/caches/transforms-1/files-1.1/react-native-0.58.4.aar/7c8c085b68af95b05e9549001d97eb55/AndroidManifest.xml:13:5-20
MERGED from [com.android.support:support-compat:28.0.0] /home/irshad/.gradle/caches/transforms-1/files-1.1/support-compat-28.0.0.aar/771feb32549a10902c9974ae21d6a1ca/AndroidManifest.xml:22:5-94
MERGED from [com.android.support:support-compat:28.0.0] /home/irshad/.gradle/caches/transforms-1/files-1.1/support-compat-28.0.0.aar/771feb32549a10902c9974ae21d6a1ca/AndroidManifest.xml:22:5-94
MERGED from [com.android.support:versionedparcelable:28.0.0] /home/irshad/.gradle/caches/transforms-1/files-1.1/versionedparcelable-28.0.0.aar/d584ee3e160e344762ed2fdc110ac938/AndroidManifest.xml:22:5-23:19
MERGED from [com.android.support:versionedparcelable:28.0.0] /home/irshad/.gradle/caches/transforms-1/files-1.1/versionedparcelable-28.0.0.aar/d584ee3e160e344762ed2fdc110ac938/AndroidManifest.xml:22:5-23:19
MERGED from [com.facebook.soloader:soloader:0.6.0] /home/irshad/.gradle/caches/transforms-1/files-1.1/soloader-0.6.0.aar/ea419f1e789312ad4238ac4e208da17c/AndroidManifest.xml:11:5-20
MERGED from [com.facebook.soloader:soloader:0.6.0] /home/irshad/.gradle/caches/transforms-1/files-1.1/soloader-0.6.0.aar/ea419f1e789312ad4238ac4e208da17c/AndroidManifest.xml:11:5-20
MERGED from [org.webkit:android-jsc:r174650] /home/irshad/.gradle/caches/transforms-1/files-1.1/android-jsc-r174650.aar/d86be95857f81b3f83113bf98378207c/AndroidManifest.xml:2:3-17
MERGED from [org.webkit:android-jsc:r174650] /home/irshad/.gradle/caches/transforms-1/files-1.1/android-jsc-r174650.aar/d86be95857f81b3f83113bf98378207c/AndroidManifest.xml:2:3-17
	android:appComponentFactory
		ADDED from [com.android.support:support-compat:28.0.0] /home/irshad/.gradle/caches/transforms-1/files-1.1/support-compat-28.0.0.aar/771feb32549a10902c9974ae21d6a1ca/AndroidManifest.xml:22:18-91
	android:label
		ADDED from /home/irshad/reactNative/sqlite/android/app/src/main/AndroidManifest.xml:9:7-39
	android:roundIcon
		ADDED from /home/irshad/reactNative/sqlite/android/app/src/main/AndroidManifest.xml:11:7-52
	android:icon
		ADDED from /home/irshad/reactNative/sqlite/android/app/src/main/AndroidManifest.xml:10:7-41
	android:allowBackup
		ADDED from /home/irshad/reactNative/sqlite/android/app/src/main/AndroidManifest.xml:12:7-34
	android:theme
		ADDED from /home/irshad/reactNative/sqlite/android/app/src/main/AndroidManifest.xml:13:7-38
	android:name
		ADDED from /home/irshad/reactNative/sqlite/android/app/src/main/AndroidManifest.xml:8:7-38
activity#com.sqlite.MainActivity
ADDED from /home/irshad/reactNative/sqlite/android/app/src/main/AndroidManifest.xml:14:7-23:18
	android:label
		ADDED from /home/irshad/reactNative/sqlite/android/app/src/main/AndroidManifest.xml:16:9-41
	android:windowSoftInputMode
		ADDED from /home/irshad/reactNative/sqlite/android/app/src/main/AndroidManifest.xml:18:9-51
	android:configChanges
		ADDED from /home/irshad/reactNative/sqlite/android/app/src/main/AndroidManifest.xml:17:9-79
	android:name
		ADDED from /home/irshad/reactNative/sqlite/android/app/src/main/AndroidManifest.xml:15:9-37
intent-filter#action:name:android.intent.action.MAIN+category:name:android.intent.category.LAUNCHER
ADDED from /home/irshad/reactNative/sqlite/android/app/src/main/AndroidManifest.xml:19:9-22:25
action#android.intent.action.MAIN
ADDED from /home/irshad/reactNative/sqlite/android/app/src/main/AndroidManifest.xml:20:13-65
	android:name
		ADDED from /home/irshad/reactNative/sqlite/android/app/src/main/AndroidManifest.xml:20:21-62
category#android.intent.category.LAUNCHER
ADDED from /home/irshad/reactNative/sqlite/android/app/src/main/AndroidManifest.xml:21:13-73
	android:name
		ADDED from /home/irshad/reactNative/sqlite/android/app/src/main/AndroidManifest.xml:21:23-70
activity#com.facebook.react.devsupport.DevSettingsActivity
ADDED from /home/irshad/reactNative/sqlite/android/app/src/main/AndroidManifest.xml:24:7-84
	android:name
		ADDED from /home/irshad/reactNative/sqlite/android/app/src/main/AndroidManifest.xml:24:17-81
uses-sdk
INJECTED from /home/irshad/reactNative/sqlite/android/app/src/main/AndroidManifest.xml reason: use-sdk injection requested
INJECTED from /home/irshad/reactNative/sqlite/android/app/src/main/AndroidManifest.xml
INJECTED from /home/irshad/reactNative/sqlite/android/app/src/main/AndroidManifest.xml
MERGED from [com.facebook.react:react-native:0.58.4] /home/irshad/.gradle/caches/transforms-1/files-1.1/react-native-0.58.4.aar/7c8c085b68af95b05e9549001d97eb55/AndroidManifest.xml:7:5-9:41
MERGED from [com.facebook.react:react-native:0.58.4] /home/irshad/.gradle/caches/transforms-1/files-1.1/react-native-0.58.4.aar/7c8c085b68af95b05e9549001d97eb55/AndroidManifest.xml:7:5-9:41
MERGED from [com.android.support:appcompat-v7:28.0.0] /home/irshad/.gradle/caches/transforms-1/files-1.1/appcompat-v7-28.0.0.aar/0e9cef4b2f570f4fd98056104e9934ea/AndroidManifest.xml:20:5-44
MERGED from [com.android.support:appcompat-v7:28.0.0] /home/irshad/.gradle/caches/transforms-1/files-1.1/appcompat-v7-28.0.0.aar/0e9cef4b2f570f4fd98056104e9934ea/AndroidManifest.xml:20:5-44
MERGED from [com.android.support:support-fragment:28.0.0] /home/irshad/.gradle/caches/transforms-1/files-1.1/support-fragment-28.0.0.aar/3827a0687d9cbf98e261feaff0507c67/AndroidManifest.xml:20:5-44
MERGED from [com.android.support:support-fragment:28.0.0] /home/irshad/.gradle/caches/transforms-1/files-1.1/support-fragment-28.0.0.aar/3827a0687d9cbf98e261feaff0507c67/AndroidManifest.xml:20:5-44
MERGED from [com.android.support:animated-vector-drawable:28.0.0] /home/irshad/.gradle/caches/transforms-1/files-1.1/animated-vector-drawable-28.0.0.aar/847f4dd85a98078b05e3fa9115a31262/AndroidManifest.xml:20:5-44
MERGED from [com.android.support:animated-vector-drawable:28.0.0] /home/irshad/.gradle/caches/transforms-1/files-1.1/animated-vector-drawable-28.0.0.aar/847f4dd85a98078b05e3fa9115a31262/AndroidManifest.xml:20:5-44
MERGED from [com.android.support:support-core-ui:28.0.0] /home/irshad/.gradle/caches/transforms-1/files-1.1/support-core-ui-28.0.0.aar/3ae9d2f1b4c467499ac83202d8de2c22/AndroidManifest.xml:20:5-44
MERGED from [com.android.support:support-core-ui:28.0.0] /home/irshad/.gradle/caches/transforms-1/files-1.1/support-core-ui-28.0.0.aar/3ae9d2f1b4c467499ac83202d8de2c22/AndroidManifest.xml:20:5-44
MERGED from [com.android.support:support-core-utils:28.0.0] /home/irshad/.gradle/caches/transforms-1/files-1.1/support-core-utils-28.0.0.aar/fb95dea86fe50472f859699761490529/AndroidManifest.xml:20:5-44
MERGED from [com.android.support:support-core-utils:28.0.0] /home/irshad/.gradle/caches/transforms-1/files-1.1/support-core-utils-28.0.0.aar/fb95dea86fe50472f859699761490529/AndroidManifest.xml:20:5-44
MERGED from [com.android.support:support-vector-drawable:28.0.0] /home/irshad/.gradle/caches/transforms-1/files-1.1/support-vector-drawable-28.0.0.aar/9a384ea0acf0bb9691734b2bd4c342ba/AndroidManifest.xml:20:5-44
MERGED from [com.android.support:support-vector-drawable:28.0.0] /home/irshad/.gradle/caches/transforms-1/files-1.1/support-vector-drawable-28.0.0.aar/9a384ea0acf0bb9691734b2bd4c342ba/AndroidManifest.xml:20:5-44
MERGED from [com.android.support:loader:28.0.0] /home/irshad/.gradle/caches/transforms-1/files-1.1/loader-28.0.0.aar/e0f6f9517daa6876648f5d135f7c0a0d/AndroidManifest.xml:20:5-44
MERGED from [com.android.support:loader:28.0.0] /home/irshad/.gradle/caches/transforms-1/files-1.1/loader-28.0.0.aar/e0f6f9517daa6876648f5d135f7c0a0d/AndroidManifest.xml:20:5-44
MERGED from [com.android.support:viewpager:28.0.0] /home/irshad/.gradle/caches/transforms-1/files-1.1/viewpager-28.0.0.aar/b10f87099d6496c8d1bef527718060f5/AndroidManifest.xml:20:5-44
MERGED from [com.android.support:viewpager:28.0.0] /home/irshad/.gradle/caches/transforms-1/files-1.1/viewpager-28.0.0.aar/b10f87099d6496c8d1bef527718060f5/AndroidManifest.xml:20:5-44
MERGED from [com.android.support:coordinatorlayout:28.0.0] /home/irshad/.gradle/caches/transforms-1/files-1.1/coordinatorlayout-28.0.0.aar/72fadfd937fcd4d35fc843581edb0e4b/AndroidManifest.xml:20:5-44
MERGED from [com.android.support:coordinatorlayout:28.0.0] /home/irshad/.gradle/caches/transforms-1/files-1.1/coordinatorlayout-28.0.0.aar/72fadfd937fcd4d35fc843581edb0e4b/AndroidManifest.xml:20:5-44
MERGED from [com.android.support:drawerlayout:28.0.0] /home/irshad/.gradle/caches/transforms-1/files-1.1/drawerlayout-28.0.0.aar/28b96163b2347919f457afa91a5b8c96/AndroidManifest.xml:20:5-44
MERGED from [com.android.support:drawerlayout:28.0.0] /home/irshad/.gradle/caches/transforms-1/files-1.1/drawerlayout-28.0.0.aar/28b96163b2347919f457afa91a5b8c96/AndroidManifest.xml:20:5-44
MERGED from [com.android.support:slidingpanelayout:28.0.0] /home/irshad/.gradle/caches/transforms-1/files-1.1/slidingpanelayout-28.0.0.aar/cc85e89d51c599f569f9f516acc5bc9c/AndroidManifest.xml:20:5-44
MERGED from [com.android.support:slidingpanelayout:28.0.0] /home/irshad/.gradle/caches/transforms-1/files-1.1/slidingpanelayout-28.0.0.aar/cc85e89d51c599f569f9f516acc5bc9c/AndroidManifest.xml:20:5-44
MERGED from [com.android.support:customview:28.0.0] /home/irshad/.gradle/caches/transforms-1/files-1.1/customview-28.0.0.aar/0d94550a8351764f017e0ea3ac6376de/AndroidManifest.xml:20:5-44
MERGED from [com.android.support:customview:28.0.0] /home/irshad/.gradle/caches/transforms-1/files-1.1/customview-28.0.0.aar/0d94550a8351764f017e0ea3ac6376de/AndroidManifest.xml:20:5-44
MERGED from [com.android.support:swiperefreshlayout:28.0.0] /home/irshad/.gradle/caches/transforms-1/files-1.1/swiperefreshlayout-28.0.0.aar/68314c23bb26203c8862efdb9d760599/AndroidManifest.xml:20:5-44
MERGED from [com.android.support:swiperefreshlayout:28.0.0] /home/irshad/.gradle/caches/transforms-1/files-1.1/swiperefreshlayout-28.0.0.aar/68314c23bb26203c8862efdb9d760599/AndroidManifest.xml:20:5-44
MERGED from [com.android.support:asynclayoutinflater:28.0.0] /home/irshad/.gradle/caches/transforms-1/files-1.1/asynclayoutinflater-28.0.0.aar/a5f5aa6c117ef334e9a7172f22fa3d31/AndroidManifest.xml:20:5-44
MERGED from [com.android.support:asynclayoutinflater:28.0.0] /home/irshad/.gradle/caches/transforms-1/files-1.1/asynclayoutinflater-28.0.0.aar/a5f5aa6c117ef334e9a7172f22fa3d31/AndroidManifest.xml:20:5-44
MERGED from [com.android.support:support-compat:28.0.0] /home/irshad/.gradle/caches/transforms-1/files-1.1/support-compat-28.0.0.aar/771feb32549a10902c9974ae21d6a1ca/AndroidManifest.xml:20:5-44
MERGED from [com.android.support:support-compat:28.0.0] /home/irshad/.gradle/caches/transforms-1/files-1.1/support-compat-28.0.0.aar/771feb32549a10902c9974ae21d6a1ca/AndroidManifest.xml:20:5-44
MERGED from [com.android.support:versionedparcelable:28.0.0] /home/irshad/.gradle/caches/transforms-1/files-1.1/versionedparcelable-28.0.0.aar/d584ee3e160e344762ed2fdc110ac938/AndroidManifest.xml:20:5-44
MERGED from [com.android.support:versionedparcelable:28.0.0] /home/irshad/.gradle/caches/transforms-1/files-1.1/versionedparcelable-28.0.0.aar/d584ee3e160e344762ed2fdc110ac938/AndroidManifest.xml:20:5-44
MERGED from [com.android.support:cursoradapter:28.0.0] /home/irshad/.gradle/caches/transforms-1/files-1.1/cursoradapter-28.0.0.aar/96f5de7536b3829ba0abd30c8b24b30f/AndroidManifest.xml:20:5-44
MERGED from [com.android.support:cursoradapter:28.0.0] /home/irshad/.gradle/caches/transforms-1/files-1.1/cursoradapter-28.0.0.aar/96f5de7536b3829ba0abd30c8b24b30f/AndroidManifest.xml:20:5-44
MERGED from [android.arch.lifecycle:runtime:1.1.1] /home/irshad/.gradle/caches/transforms-1/files-1.1/runtime-1.1.1.aar/31993d8abd3c4a2f709641cb94b6c516/AndroidManifest.xml:20:5-44
MERGED from [android.arch.lifecycle:runtime:1.1.1] /home/irshad/.gradle/caches/transforms-1/files-1.1/runtime-1.1.1.aar/31993d8abd3c4a2f709641cb94b6c516/AndroidManifest.xml:20:5-44
MERGED from [com.android.support:documentfile:28.0.0] /home/irshad/.gradle/caches/transforms-1/files-1.1/documentfile-28.0.0.aar/cc2a1d6782f8deff06eb8071e81ad235/AndroidManifest.xml:20:5-44
MERGED from [com.android.support:documentfile:28.0.0] /home/irshad/.gradle/caches/transforms-1/files-1.1/documentfile-28.0.0.aar/cc2a1d6782f8deff06eb8071e81ad235/AndroidManifest.xml:20:5-44
MERGED from [com.android.support:localbroadcastmanager:28.0.0] /home/irshad/.gradle/caches/transforms-1/files-1.1/localbroadcastmanager-28.0.0.aar/31ef8cf655da30d2b3a590706233cbe5/AndroidManifest.xml:20:5-44
MERGED from [com.android.support:localbroadcastmanager:28.0.0] /home/irshad/.gradle/caches/transforms-1/files-1.1/localbroadcastmanager-28.0.0.aar/31ef8cf655da30d2b3a590706233cbe5/AndroidManifest.xml:20:5-44
MERGED from [com.android.support:print:28.0.0] /home/irshad/.gradle/caches/transforms-1/files-1.1/print-28.0.0.aar/aace40e8dca27ccd81a87ef284f23c83/AndroidManifest.xml:20:5-44
MERGED from [com.android.support:print:28.0.0] /home/irshad/.gradle/caches/transforms-1/files-1.1/print-28.0.0.aar/aace40e8dca27ccd81a87ef284f23c83/AndroidManifest.xml:20:5-44
MERGED from [android.arch.lifecycle:viewmodel:1.1.1] /home/irshad/.gradle/caches/transforms-1/files-1.1/viewmodel-1.1.1.aar/9ed334a798c398b06560e0eea1689ea1/AndroidManifest.xml:20:5-44
MERGED from [android.arch.lifecycle:viewmodel:1.1.1] /home/irshad/.gradle/caches/transforms-1/files-1.1/viewmodel-1.1.1.aar/9ed334a798c398b06560e0eea1689ea1/AndroidManifest.xml:20:5-44
MERGED from [android.arch.lifecycle:livedata:1.1.1] /home/irshad/.gradle/caches/transforms-1/files-1.1/livedata-1.1.1.aar/2b8f4a885b77be2aff210c3d4be6ed54/AndroidManifest.xml:20:5-44
MERGED from [android.arch.lifecycle:livedata:1.1.1] /home/irshad/.gradle/caches/transforms-1/files-1.1/livedata-1.1.1.aar/2b8f4a885b77be2aff210c3d4be6ed54/AndroidManifest.xml:20:5-44
MERGED from [android.arch.lifecycle:livedata-core:1.1.1] /home/irshad/.gradle/caches/transforms-1/files-1.1/livedata-core-1.1.1.aar/83a2da4b344972aec2c10fba4431c772/AndroidManifest.xml:20:5-44
MERGED from [android.arch.lifecycle:livedata-core:1.1.1] /home/irshad/.gradle/caches/transforms-1/files-1.1/livedata-core-1.1.1.aar/83a2da4b344972aec2c10fba4431c772/AndroidManifest.xml:20:5-44
MERGED from [android.arch.core:runtime:1.1.1] /home/irshad/.gradle/caches/transforms-1/files-1.1/runtime-1.1.1.aar/1a17cfb2f8cc5541cb51f3789f0f57ba/AndroidManifest.xml:20:5-44
MERGED from [android.arch.core:runtime:1.1.1] /home/irshad/.gradle/caches/transforms-1/files-1.1/runtime-1.1.1.aar/1a17cfb2f8cc5541cb51f3789f0f57ba/AndroidManifest.xml:20:5-44
MERGED from [com.android.support:interpolator:28.0.0] /home/irshad/.gradle/caches/transforms-1/files-1.1/interpolator-28.0.0.aar/814eae93f1270c56214efd91bcdb1b6e/AndroidManifest.xml:20:5-44
MERGED from [com.android.support:interpolator:28.0.0] /home/irshad/.gradle/caches/transforms-1/files-1.1/interpolator-28.0.0.aar/814eae93f1270c56214efd91bcdb1b6e/AndroidManifest.xml:20:5-44
MERGED from [com.facebook.fresco:fresco:1.10.0] /home/irshad/.gradle/caches/transforms-1/files-1.1/fresco-1.10.0.aar/3eff9663ff9988667f962e33ce004f02/AndroidManifest.xml:5:5-7:41
MERGED from [com.facebook.fresco:fresco:1.10.0] /home/irshad/.gradle/caches/transforms-1/files-1.1/fresco-1.10.0.aar/3eff9663ff9988667f962e33ce004f02/AndroidManifest.xml:5:5-7:41
MERGED from [com.facebook.fresco:imagepipeline-okhttp3:1.10.0] /home/irshad/.gradle/caches/transforms-1/files-1.1/imagepipeline-okhttp3-1.10.0.aar/a4d5bc25568fd22b926fab543da8c15f/AndroidManifest.xml:5:5-7:41
MERGED from [com.facebook.fresco:imagepipeline-okhttp3:1.10.0] /home/irshad/.gradle/caches/transforms-1/files-1.1/imagepipeline-okhttp3-1.10.0.aar/a4d5bc25568fd22b926fab543da8c15f/AndroidManifest.xml:5:5-7:41
MERGED from [com.facebook.fresco:drawee:1.10.0] /home/irshad/.gradle/caches/transforms-1/files-1.1/drawee-1.10.0.aar/9745adb57e6cd99b3f7e0ed959fc4877/AndroidManifest.xml:5:5-7:41
MERGED from [com.facebook.fresco:drawee:1.10.0] /home/irshad/.gradle/caches/transforms-1/files-1.1/drawee-1.10.0.aar/9745adb57e6cd99b3f7e0ed959fc4877/AndroidManifest.xml:5:5-7:41
MERGED from [com.facebook.fresco:imagepipeline:1.10.0] /home/irshad/.gradle/caches/transforms-1/files-1.1/imagepipeline-1.10.0.aar/e6e46b0d3e0edc549c89723ee34cd44c/AndroidManifest.xml:5:5-7:41
MERGED from [com.facebook.fresco:imagepipeline:1.10.0] /home/irshad/.gradle/caches/transforms-1/files-1.1/imagepipeline-1.10.0.aar/e6e46b0d3e0edc549c89723ee34cd44c/AndroidManifest.xml:5:5-7:41
MERGED from [com.facebook.fresco:imagepipeline-base:1.10.0] /home/irshad/.gradle/caches/transforms-1/files-1.1/imagepipeline-base-1.10.0.aar/43692b81b2057aaf4b788bdabe36932c/AndroidManifest.xml:5:5-7:41
MERGED from [com.facebook.fresco:imagepipeline-base:1.10.0] /home/irshad/.gradle/caches/transforms-1/files-1.1/imagepipeline-base-1.10.0.aar/43692b81b2057aaf4b788bdabe36932c/AndroidManifest.xml:5:5-7:41
MERGED from [com.facebook.soloader:soloader:0.6.0] /home/irshad/.gradle/caches/transforms-1/files-1.1/soloader-0.6.0.aar/ea419f1e789312ad4238ac4e208da17c/AndroidManifest.xml:7:5-9:41
MERGED from [com.facebook.soloader:soloader:0.6.0] /home/irshad/.gradle/caches/transforms-1/files-1.1/soloader-0.6.0.aar/ea419f1e789312ad4238ac4e208da17c/AndroidManifest.xml:7:5-9:41
MERGED from [com.facebook.fresco:fbcore:1.10.0] /home/irshad/.gradle/caches/transforms-1/files-1.1/fbcore-1.10.0.aar/e64f68533693934f050d7bf374f92cc1/AndroidManifest.xml:5:5-7:41
MERGED from [com.facebook.fresco:fbcore:1.10.0] /home/irshad/.gradle/caches/transforms-1/files-1.1/fbcore-1.10.0.aar/e64f68533693934f050d7bf374f92cc1/AndroidManifest.xml:5:5-7:41
INJECTED from /home/irshad/reactNative/sqlite/android/app/src/main/AndroidManifest.xml
INJECTED from /home/irshad/reactNative/sqlite/android/app/src/main/AndroidManifest.xml
	android:targetSdkVersion
		INJECTED from /home/irshad/reactNative/sqlite/android/app/src/main/AndroidManifest.xml
		ADDED from /home/irshad/reactNative/sqlite/android/app/src/main/AndroidManifest.xml
		INJECTED from /home/irshad/reactNative/sqlite/android/app/src/main/AndroidManifest.xml
	android:minSdkVersion
		INJECTED from /home/irshad/reactNative/sqlite/android/app/src/main/AndroidManifest.xml
		ADDED from /home/irshad/reactNative/sqlite/android/app/src/main/AndroidManifest.xml
		INJECTED from /home/irshad/reactNative/sqlite/android/app/src/main/AndroidManifest.xml
uses-permission#android.permission.WRITE_EXTERNAL_STORAGE
IMPLIED from /home/irshad/reactNative/sqlite/android/app/src/main/AndroidManifest.xml:1:1-27:12 reason: org.webkit.android_jsc has a targetSdkVersion < 4
uses-permission#android.permission.READ_PHONE_STATE
IMPLIED from /home/irshad/reactNative/sqlite/android/app/src/main/AndroidManifest.xml:1:1-27:12 reason: org.webkit.android_jsc has a targetSdkVersion < 4
uses-permission#android.permission.READ_EXTERNAL_STORAGE
IMPLIED from /home/irshad/reactNative/sqlite/android/app/src/main/AndroidManifest.xml:1:1-27:12 reason: org.webkit.android_jsc requested WRITE_EXTERNAL_STORAGE
